[
  { "id": 1, "firstname": "Johann", "lastname": "Rosain" },
  { "id": 2, "firstname": "Benoît", "lastname": "Huftier" },
  { "id": 3, "firstname": "Robin", "lastname": "L'Huillier" },
  { "id": 4, "firstname": "Cédric", "lastname": "Cahuzac" }
]